Eléments de correction pour le TD1 – Méthodes d’analyse factorielle
…
Note

Il n’y a pas de données manquantes.

Sont-ils tous prélevés à la même profondeur ?

Note

Observez le site 292-31_D

Code

dta |> group_by(Site, Profondeur) |> count() 

# A tibble: 539 × 3
# Groups:   Site, Profondeur [539]
   Site     Profondeur        n
   <fct>    <fct>         <int>
 1 292-11_A Superficiel       1
 2 292-11_A Intermediaire     1
 3 292-11_A Profond           1
 4 292-11_B Superficiel       1
 5 292-11_B Intermediaire     1
 6 292-11_B Profond           1
 7 292-11_H Superficiel       1
 8 292-11_H Intermediaire     1
 9 292-11_H Profond           1
10 292-11_M Superficiel       1
# ℹ 529 more rows
…
