Labs2 - Analyse en composante Principale et au-delà — Corrigé – Méthodes d’analyse factorielle
…
overshoot_pca$ind$contrib |> as.data.frame()|>
  rownames_to_column() |> as_tibble()|> arrange(-Dim.1)

# A tibble: 162 × 6
   rowname              Dim.1   Dim.2  Dim.3   Dim.4     Dim.5
   <chr>                <dbl>   <dbl>  <dbl>   <dbl>     <dbl>
 1 Qatar                 5.38  0.0112 0.188   0.132  10.7     
 2 Singapore             4.26 21.6    4.67   37.6     0.503   
 3 Luxembourg            4.00  0.459  0.236   0.147   0.596   
 4 United Arab Emirates  2.52  0.817  0.327   0.905   1.68    
 5 Canada                2.14  1.67   0.180   0.0926  0.157   
 6 Bahrain               2.05  0.414  0.260   0.449   2.07    
 7 Kuwait                1.84  0.0495 0.113   0.0247  2.61    
 8 Australia             1.80  0.989  0.102   0.236   0.000152
 9 Norway                1.79  0.337  0.0119  0.394   0.0351  
10 Finland               1.63  1.26   0.0589  0.206   0.00890 
# ℹ 152 more rows

overshoot_pca$ind$contrib |> as.data.frame()|>
  rownames_to_column() |> as_tibble()|> arrange(-Dim.2)

# A tibble: 162 × 6
   rowname    Dim.1 Dim.2   Dim.3    Dim.4   Dim.5
   <chr>      <dbl> <dbl>   <dbl>    <dbl>   <dbl>
 1 Singapore 4.26   21.6   4.67   37.6     0.503  
 2 Suriname  0.0376 20.0   0.597  21.8     5.64   
 3 Guyana    0.0923 18.9   0.469  20.0     2.28   
 4 India     0.521   3.20 37.4     0.968   0.353  
 5 China     0.0715  3.18 43.3     0.482   0.315  
 6 Israel    0.801   2.26  0.417   1.46    0.540  
 7 Mongolia  0.527   2.19  0.0261  0.00442 2.10   
 8 Canada    2.14    1.67  0.180   0.0926  0.157  
 9 Latvia    1.21    1.56  0.0212  0.184   1.88   
10 Finland   1.63    1.26  0.0589  0.206   0.00890
# ℹ 152 more rows
…
